Project 1
…
library(tidyr)
library(dplyr)
# Dataset 1:
happy <- HappinessAlcoholConsumption %>% select(Country:Wine_PerCapita) %>% 
    na.omit()
untidyhappy <- happy %>% pivot_wider(names_from = "Country", 
    values_from = "Beer_PerCapita")
tidyhappy <- untidyhappy %>% pivot_longer(cols = c(5:126), names_to = "Country", 
    values_to = "Beer_PerCapita") %>% na.omit()
tidyhappy

## # A tibble: 122 x 6
##    Region      Hemisphere Spirit_PerCapita Wine_PerCapita Country Beer_PerCapita
##    <fct>       <fct>                 <int>          <int> <chr>            <int>
##  1 Western Eu… north                    81            278 Denmark            224
##  2 Western Eu… north                   100            280 Switze…            185
##  3 Western Eu… north                    61             78 Iceland            233
##  4 Western Eu… north                    71            129 Norway             169
##  5 Western Eu… north                   133             97 Finland            263
##  6 North Amer… north                   122            100 Canada             240
##  7 Western Eu… north                    88            190 Nether…            251
##  8 Australia … south                    79            175 New Ze…            203
##  9 Australia … south                    72            212 Austra…            261
## 10 Western Eu… north                    60            186 Sweden             152
## # … with 112 more rows
…
untidyx2016 <- X2016 %>% pivot_wider(names_from = "Country", 
    values_from = "Happiness.Rank")
tidyx2016 <- untidyx2016 %>% pivot_longer(cols = c(3:124), names_to = "Country", 
    values_to = "Happiness Rank") %>% na.omit()
tidyx2016

## # A tibble: 122 x 4
##    Region                    HappinessScore Country     `Happiness Rank`
##    <fct>                              <dbl> <chr>                  <int>
##  1 Western Europe                      7.53 Denmark                    1
##  2 Western Europe                      7.51 Switzerland                2
##  3 Western Europe                      7.50 Iceland                    3
##  4 Western Europe                      7.50 Norway                     4
##  5 Western Europe                      7.41 Finland                    5
##  6 North America                       7.40 Canada                     6
##  7 Western Europe                      7.34 Netherlands                7
##  8 Australia and New Zealand           7.33 New Zealand                8
##  9 Australia and New Zealand           7.31 Australia                  9
## 10 Western Europe                      7.29 Sweden                    10
## # … with 112 more rows
…
fulldatax %>% group_by(happiness)

## # A tibble: 121 x 9
## # Groups:   happiness [2]
##    Country Region Happiness.Rank HappinessScore Hemisphere Beer_PerCapita
##    <fct>   <fct>           <int>          <dbl> <fct>               <int>
##  1 Denmark Weste…              1           7.53 north                 224
##  2 Switze… Weste…              2           7.51 north                 185
##  3 Iceland Weste…              3           7.50 north                 233
##  4 Norway  Weste…              4           7.50 north                 169
##  5 Finland Weste…              5           7.41 north                 263
##  6 Canada  North…              6           7.40 north                 240
##  7 Nether… Weste…              7           7.34 north                 251
##  8 New Ze… Austr…              8           7.33 south                 203
##  9 Austra… Austr…              9           7.31 south                 261
## 10 Sweden  Weste…             10           7.29 north                 152
## # … with 111 more rows, and 3 more variables: Spirit_PerCapita <int>,
## #   Wine_PerCapita <int>, happiness <chr>
…
fulldatax %>% group_by(Country, happiness) %>% summarize(mean(HappinessScore))

## `summarise()` regrouping output by 'Country' (override with `.groups` argument)

## # A tibble: 121 x 3
## # Groups:   Country [121]
##    Country    happiness `mean(HappinessScore)`
##    <fct>      <chr>                      <dbl>
##  1 Albania    not happy                   4.66
##  2 Angola     not happy                   3.87
##  3 Argentina  happy                       6.65
##  4 Armenia    not happy                   4.36
##  5 Australia  happy                       7.31
##  6 Austria    happy                       7.12
##  7 Azerbaijan not happy                   5.29
##  8 Bahrain    happy                       6.22
##  9 Belarus    happy                       5.80
## 10 Belgium    happy                       6.93
## # … with 111 more rows

fulldatax %>% group_by(happiness, Wine_PerCapita) %>% summarize(mean(Beer_PerCapita))

## `summarise()` regrouping output by 'happiness' (override with `.groups` argument)

## # A tibble: 73 x 3
## # Groups:   happiness [2]
##    happiness Wine_PerCapita `mean(Beer_PerCapita)`
##    <chr>              <int>                  <dbl>
##  1 happy                  1                   88.5
##  2 happy                  2                   52.5
##  3 happy                  3                  218  
##  4 happy                  5                  127  
##  5 happy                  7                   92  
##  6 happy                  8                  152. 
##  7 happy                  9                  102. 
##  8 happy                 11                  104. 
##  9 happy                 12                  124  
## 10 happy                 16                  161  
## # … with 63 more rows
…
